assignment/assignment_fifo/src/simulate.log
Vivado Simulator 2018.2
Time resolution is 1 ps
----------------------------------------------
------------------   -----------------------
----------- SIMULATION RESULT ----------------
--------------       -------------------
----------------     ---------------------
----------------------------------------------
TIME =                    0, wr = 0, rd = 0, data_in = 00
TIME =                   10, data_out =   x, mem =   x
TIME =                   30, data_out =   x, mem =   x
TIME =                   50, data_out =   x, mem =   x
TIME =                   50, wr = 1, rd = 0, data_in = 01
TIME =                   70, data_out =   1, mem =   1
TIME =                   70, wr = 0, rd = 0, data_in = 01
TIME =                   90, data_out =   1, mem =   1
TIME =                  110, data_out =   1, mem =   1
TIME =                  120, wr = 1, rd = 0, data_in = 02
TIME =                  130, data_out =   1, mem =   1
TIME =                  140, wr = 0, rd = 0, data_in = 02
TIME =                  150, data_out =   1, mem =   1
TIME =                  170, data_out =   1, mem =   1
TIME =                  190, data_out =   1, mem =   1
TIME =                  190, wr = 1, rd = 0, data_in = 03
TIME =                  210, data_out =   1, mem =   1
TIME =                  210, wr = 0, rd = 0, data_in = 03
TIME =                  230, data_out =   1, mem =   1
TIME =                  250, data_out =   1, mem =   1
TIME =                  260, wr = 1, rd = 0, data_in = 04
TIME =                  270, data_out =   1, mem =   1
TIME =                  280, wr = 0, rd = 0, data_in = 04
TIME =                  290, data_out =   1, mem =   1
TIME =                  310, data_out =   1, mem =   1
TIME =                  330, data_out =   1, mem =   1
TIME =                  330, wr = 1, rd = 0, data_in = 05
TIME =                  350, data_out =   1, mem =   1
TIME =                  350, wr = 0, rd = 0, data_in = 05
TIME =                  370, data_out =   1, mem =   1
TIME =                  390, data_out =   1, mem =   1
TIME =                  400, wr = 1, rd = 0, data_in = 06
TIME =                  410, data_out =   1, mem =   1
TIME =                  420, wr = 0, rd = 0, data_in = 06
TIME =                  430, data_out =   1, mem =   1
TIME =                  450, data_out =   1, mem =   1
TIME =                  470, data_out =   1, mem =   1
TIME =                  470, wr = 1, rd = 0, data_in = 07
TIME =                  490, data_out =   1, mem =   1
TIME =                  490, wr = 0, rd = 0, data_in = 07
TIME =                  510, data_out =   1, mem =   1
TIME =                  530, data_out =   1, mem =   1
TIME =                  540, wr = 1, rd = 0, data_in = 08
TIME =                  550, data_out =   1, mem =   1
TIME =                  560, wr = 0, rd = 0, data_in = 08
TIME =                  570, data_out =   1, mem =   1
TIME =                  590, data_out =   1, mem =   1
TIME =                  610, data_out =   1, mem =   1
TIME =                  610, wr = 1, rd = 0, data_in = 09
TIME =                  630, data_out =   1, mem =   1
TIME =                  630, wr = 0, rd = 0, data_in = 09
TIME =                  650, data_out =   1, mem =   1
TIME =                  670, data_out =   1, mem =   1
TIME =                  680, wr = 1, rd = 0, data_in = 0a
TIME =                  690, data_out =   1, mem =   1
TIME =                  700, wr = 0, rd = 0, data_in = 0a
TIME =                  710, data_out =   1, mem =   1
TIME =                  730, data_out =   1, mem =   1
TIME =                  750, data_out =   1, mem =   1
TIME =                  750, wr = 1, rd = 0, data_in = 0b
TIME =                  770, data_out =   1, mem =   1
TIME =                  770, wr = 0, rd = 0, data_in = 0b
TIME =                  790, data_out =   1, mem =   1
TIME =                  810, data_out =   1, mem =   1
TIME =                  820, wr = 1, rd = 0, data_in = 0c
TIME =                  830, data_out =   1, mem =   1
TIME =                  840, wr = 0, rd = 0, data_in = 0c
TIME =                  850, data_out =   1, mem =   1
TIME =                  870, data_out =   1, mem =   1
TIME =                  890, data_out =   1, mem =   1
TIME =                  890, wr = 1, rd = 0, data_in = 0d
TIME =                  910, data_out =   1, mem =   1
TIME =                  910, wr = 0, rd = 0, data_in = 0d
TIME =                  930, data_out =   1, mem =   1
TIME =                  950, data_out =   1, mem =   1
TIME =                  960, wr = 1, rd = 0, data_in = 0e
TIME =                  970, data_out =   1, mem =   1
TIME =                  980, wr = 0, rd = 0, data_in = 0e
TIME =                  990, data_out =   1, mem =   1
TIME =                 1010, data_out =   1, mem =   1
TIME =                 1030, data_out =   1, mem =   1
TIME =                 1030, wr = 1, rd = 0, data_in = 0f
TIME =                 1050, data_out =   1, mem =   1
TIME =                 1050, wr = 0, rd = 0, data_in = 0f
TIME =                 1070, data_out =   1, mem =   1
TIME =                 1090, data_out =   1, mem =   1
TIME =                 1100, wr = 1, rd = 0, data_in = 10
TIME =                 1110, data_out =   1, mem =   1
TIME =                 1120, wr = 0, rd = 0, data_in = 10
TIME =                 1130, data_out =   1, mem =   1
TIME =                 1150, data_out =   1, mem =   1
TIME =                 1170, data_out =   1, mem =   1
TIME =                 1170, wr = 1, rd = 0, data_in = 11
TIME =                 1190, data_out =   1, mem =   1
TIME =                 1190, wr = 0, rd = 0, data_in = 11
TIME =                 1210, data_out =   1, mem =   1
TIME =                 1220, wr = 0, rd = 1, data_in = 11
TIME =                 1230, data_out =   1, mem =   1
=== PASS ===== PASS ==== PASS ==== PASS ===
TIME =                 1240, wr = 0, rd = 0, data_in = 11
TIME =                 1250, data_out =   2, mem =   2
TIME =                 1260, wr = 0, rd = 1, data_in = 11
TIME =                 1270, data_out =   2, mem =   2
=== PASS ===== PASS ==== PASS ==== PASS ===
TIME =                 1280, wr = 0, rd = 0, data_in = 11
TIME =                 1290, data_out =   3, mem =   3
TIME =                 1300, wr = 0, rd = 1, data_in = 11
TIME =                 1310, data_out =   3, mem =   3
=== PASS ===== PASS ==== PASS ==== PASS ===
TIME =                 1320, wr = 0, rd = 0, data_in = 11
TIME =                 1330, data_out =   4, mem =   4
TIME =                 1340, wr = 0, rd = 1, data_in = 11
TIME =                 1350, data_out =   4, mem =   4
=== PASS ===== PASS ==== PASS ==== PASS ===
TIME =                 1360, wr = 0, rd = 0, data_in = 11
TIME =                 1370, data_out =   5, mem =   5
TIME =                 1380, wr = 0, rd = 1, data_in = 11
TIME =                 1390, data_out =   5, mem =   5
=== PASS ===== PASS ==== PASS ==== PASS ===
TIME =                 1400, wr = 0, rd = 0, data_in = 11
TIME =                 1410, data_out =   6, mem =   6
TIME =                 1420, wr = 0, rd = 1, data_in = 11
TIME =                 1430, data_out =   6, mem =   6
=== PASS ===== PASS ==== PASS ==== PASS ===
TIME =                 1440, wr = 0, rd = 0, data_in = 11
TIME =                 1450, data_out =   7, mem =   7
TIME =                 1460, wr = 0, rd = 1, data_in = 11
TIME =                 1470, data_out =   7, mem =   7
=== PASS ===== PASS ==== PASS ==== PASS ===
TIME =                 1480, wr = 0, rd = 0, data_in = 11
TIME =                 1490, data_out =   8, mem =   8
TIME =                 1500, wr = 0, rd = 1, data_in = 11
TIME =                 1510, data_out =   8, mem =   8
=== PASS ===== PASS ==== PASS ==== PASS ===
TIME =                 1520, wr = 0, rd = 0, data_in = 11
TIME =                 1530, data_out =   9, mem =   9
TIME =                 1540, wr = 0, rd = 1, data_in = 11
TIME =                 1550, data_out =   9, mem =   9
=== PASS ===== PASS ==== PASS ==== PASS ===
TIME =                 1560, wr = 0, rd = 0, data_in = 11
TIME =                 1570, data_out =  10, mem =  10
TIME =                 1580, wr = 0, rd = 1, data_in = 11
TIME =                 1590, data_out =  10, mem =  10
=== PASS ===== PASS ==== PASS ==== PASS ===
TIME =                 1600, wr = 0, rd = 0, data_in = 11
TIME =                 1610, data_out =  11, mem =  11
TIME =                 1620, wr = 0, rd = 1, data_in = 11
TIME =                 1630, data_out =  11, mem =  11
=== PASS ===== PASS ==== PASS ==== PASS ===
TIME =                 1640, wr = 0, rd = 0, data_in = 11
TIME =                 1650, data_out =  12, mem =  12
TIME =                 1660, wr = 0, rd = 1, data_in = 11
TIME =                 1670, data_out =  12, mem =  12
=== PASS ===== PASS ==== PASS ==== PASS ===
TIME =                 1680, wr = 0, rd = 0, data_in = 11
TIME =                 1690, data_out =  13, mem =  13
TIME =                 1700, wr = 0, rd = 1, data_in = 11
TIME =                 1710, data_out =  13, mem =  13
=== PASS ===== PASS ==== PASS ==== PASS ===
TIME =                 1720, wr = 0, rd = 0, data_in = 11
TIME =                 1730, data_out =  14, mem =  14
TIME =                 1740, wr = 0, rd = 1, data_in = 11
TIME =                 1750, data_out =  14, mem =  14
=== PASS ===== PASS ==== PASS ==== PASS ===
TIME =                 1760, wr = 0, rd = 0, data_in = 11
TIME =                 1770, data_out =  15, mem =  15
TIME =                 1780, wr = 0, rd = 1, data_in = 11
TIME =                 1790, data_out =  15, mem =  15
=== PASS ===== PASS ==== PASS ==== PASS ===
TIME =                 1800, wr = 0, rd = 0, data_in = 11
TIME =                 1810, data_out =  16, mem =  16
TIME =                 1820, wr = 0, rd = 1, data_in = 11
TIME =                 1830, data_out =  16, mem =  16
=== PASS ===== PASS ==== PASS ==== PASS ===
TIME =                 1840, wr = 0, rd = 0, data_in = 11
TIME =                 1850, data_out =   1, mem =  17
TIME =                 1860, wr = 0, rd = 1, data_in = 11
TIME =                 1870, data_out =   1, mem =  17
TIME =                 1880, wr = 0, rd = 0, data_in = 11
TIME =                 1890, data_out =   1, mem =  17
TIME =                 1910, data_out =   1, mem =  17
TIME =                 1930, data_out =   1, mem =  17
TIME =                 1950, data_out =   1, mem =  17
TIME =                 1970, data_out =   1, mem =  17
TIME =                 1990, data_out =   1, mem =  17
TIME =                 2010, data_out =   1, mem =  17
TIME =                 2030, data_out =   1, mem =  17
TIME =                 2050, data_out =   1, mem =  17
TIME =                 2070, data_out =   1, mem =  17
TIME =                 2090, data_out =   1, mem =  17
TIME =                 2110, data_out =   1, mem =  17
TIME =                 2130, data_out =   1, mem =  17
TIME =                 2150, data_out =   1, mem =  17
TIME =                 2170, data_out =   1, mem =  17
TIME =                 2190, data_out =   1, mem =  17
TIME =                 2210, data_out =   1, mem =  17
TIME =                 2230, data_out =   1, mem =  17
TIME =                 2250, data_out =   1, mem =  17
TIME =                 2270, data_out =   1, mem =  17
TIME =                 2290, data_out =   1, mem =  17
TIME =                 2310, data_out =   1, mem =  17
TIME =                 2330, data_out =   1, mem =  17
TIME =                 2350, data_out =   1, mem =  17
TIME =                 2370, data_out =   1, mem =  17
TIME =                 2390, data_out =   1, mem =  17
TIME =                 2410, data_out =   1, mem =  17
TIME =                 2430, data_out =   1, mem =  17
TIME =                 2450, data_out =   1, mem =  17
TIME =                 2470, data_out =   1, mem =  17
TIME =                 2490, data_out =   1, mem =  17
TIME =                 2510, data_out =   1, mem =  17
TIME =                 2530, data_out =   1, mem =  17
TIME =                 2550, data_out =   1, mem =  17
TIME =                 2570, data_out =   1, mem =  17
TIME =                 2590, data_out =   1, mem =  17
TIME =                 2610, data_out =   1, mem =  17
TIME =                 2630, data_out =   1, mem =  17
TIME =                 2650, data_out =   1, mem =  17
TIME =                 2670, data_out =   1, mem =  17
TIME =                 2690, data_out =   1, mem =  17
TIME =                 2710, data_out =   1, mem =  17
TIME =                 2730, data_out =   1, mem =  17
TIME =                 2750, data_out =   1, mem =  17
TIME =                 2770, data_out =   1, mem =  17
TIME =                 2790, data_out =   1, mem =  17
TIME =                 2810, data_out =   1, mem =  17
TIME =                 2830, data_out =   1, mem =  17
TIME =                 2850, data_out =   1, mem =  17
TIME =                 2870, data_out =   1, mem =  17
TIME =                 2890, data_out =   1, mem =  17
TIME =                 2910, data_out =   1, mem =  17
TIME =                 2930, data_out =   1, mem =  17
TIME =                 2950, data_out =   1, mem =  17
TIME =                 2970, data_out =   1, mem =  17
TIME =                 2990, data_out =   1, mem =  17
TIME =                 3010, data_out =   1, mem =  17
TIME =                 3030, data_out =   1, mem =  17
TIME =                 3050, data_out =   1, mem =  17
TIME =                 3070, data_out =   1, mem =  17
TIME =                 3090, data_out =   1, mem =  17
TIME =                 3110, data_out =   1, mem =  17
TIME =                 3130, data_out =   1, mem =  17
TIME =                 3150, data_out =   1, mem =  17
TIME =                 3170, data_out =   1, mem =  17
TIME =                 3190, data_out =   1, mem =  17
TIME =                 3210, data_out =   1, mem =  17
TIME =                 3230, data_out =   1, mem =  17
TIME =                 3250, data_out =   1, mem =  17
TIME =                 3270, data_out =   1, mem =  17
TIME =                 3290, data_out =   1, mem =  17
TIME =                 3310, data_out =   1, mem =  17
TIME =                 3330, data_out =   1, mem =  17
TIME =                 3350, data_out =   1, mem =  17
TIME =                 3370, data_out =   1, mem =  17
TIME =                 3390, data_out =   1, mem =  17
TIME =                 3410, data_out =   1, mem =  17
TIME =                 3430, data_out =   1, mem =  17
TIME =                 3450, data_out =   1, mem =  17
TIME =                 3470, data_out =   1, mem =  17
TIME =                 3490, data_out =   1, mem =  17
TIME =                 3510, data_out =   1, mem =  17
TIME =                 3530, data_out =   1, mem =  17
TIME =                 3550, data_out =   1, mem =  17
TIME =                 3570, data_out =   1, mem =  17
TIME =                 3590, data_out =   1, mem =  17
TIME =                 3610, data_out =   1, mem =  17
TIME =                 3630, data_out =   1, mem =  17
TIME =                 3650, data_out =   1, mem =  17
TIME =                 3670, data_out =   1, mem =  17
TIME =                 3690, data_out =   1, mem =  17
TIME =                 3710, data_out =   1, mem =  17
TIME =                 3730, data_out =   1, mem =  17
TIME =                 3750, data_out =   1, mem =  17
TIME =                 3770, data_out =   1, mem =  17
TIME =                 3790, data_out =   1, mem =  17
TIME =                 3810, data_out =   1, mem =  17
TIME =                 3830, data_out =   1, mem =  17
TIME =                 3850, data_out =   1, mem =  17
TIME =                 3870, data_out =   1, mem =  17
TIME =                 3890, data_out =   1, mem =  17
TIME =                 3910, data_out =   1, mem =  17
TIME =                 3930, data_out =   1, mem =  17
TIME =                 3950, data_out =   1, mem =  17
TIME =                 3970, data_out =   1, mem =  17
TIME =                 3990, data_out =   1, mem =  17
TIME =                 4010, data_out =   1, mem =  17
TIME =                 4030, data_out =   1, mem =  17
TIME =                 4050, data_out =   1, mem =  17
TIME =                 4070, data_out =   1, mem =  17
TIME =                 4090, data_out =   1, mem =  17
TIME =                 4110, data_out =   1, mem =  17
TIME =                 4130, data_out =   1, mem =  17
TIME =                 4150, data_out =   1, mem =  17
TIME =                 4170, data_out =   1, mem =  17
TIME =                 4190, data_out =   1, mem =  17
TIME =                 4210, data_out =   1, mem =  17
TIME =                 4230, data_out =   1, mem =  17
TIME =                 4250, data_out =   1, mem =  17
TIME =                 4270, data_out =   1, mem =  17
TIME =                 4290, data_out =   1, mem =  17
TIME =                 4310, data_out =   1, mem =  17
TIME =                 4330, data_out =   1, mem =  17
TIME =                 4350, data_out =   1, mem =  17
TIME =                 4370, data_out =   1, mem =  17
TIME =                 4390, data_out =   1, mem =  17
TIME =                 4410, data_out =   1, mem =  17
TIME =                 4430, data_out =   1, mem =  17
TIME =                 4450, data_out =   1, mem =  17
TIME =                 4470, data_out =   1, mem =  17
TIME =                 4490, data_out =   1, mem =  17
TIME =                 4510, data_out =   1, mem =  17
TIME =                 4530, data_out =   1, mem =  17
TIME =                 4550, data_out =   1, mem =  17
TIME =                 4570, data_out =   1, mem =  17
TIME =                 4590, data_out =   1, mem =  17
TIME =                 4610, data_out =   1, mem =  17
TIME =                 4630, data_out =   1, mem =  17
TIME =                 4650, data_out =   1, mem =  17
TIME =                 4670, data_out =   1, mem =  17
TIME =                 4690, data_out =   1, mem =  17
TIME =                 4710, data_out =   1, mem =  17
TIME =                 4730, data_out =   1, mem =  17
TIME =                 4750, data_out =   1, mem =  17
TIME =                 4770, data_out =   1, mem =  17
TIME =                 4790, data_out =   1, mem =  17
TIME =                 4810, data_out =   1, mem =  17
TIME =                 4830, data_out =   1, mem =  17
TIME =                 4850, data_out =   1, mem =  17
TIME =                 4870, data_out =   1, mem =  17
TIME =                 4890, data_out =   1, mem =  17
TIME =                 4910, data_out =   1, mem =  17
TIME =                 4930, data_out =   1, mem =  17
TIME =                 4950, data_out =   1, mem =  17
TIME =                 4970, data_out =   1, mem =  17
TIME =                 4990, data_out =   1, mem =  17
TIME =                 5010, data_out =   1, mem =  17
TIME =                 5030, data_out =   1, mem =  17
TIME =                 5050, data_out =   1, mem =  17
TIME =                 5070, data_out =   1, mem =  17
TIME =                 5090, data_out =   1, mem =  17
TIME =                 5110, data_out =   1, mem =  17
TIME =                 5130, data_out =   1, mem =  17
TIME =                 5150, data_out =   1, mem =  17
TIME =                 5170, data_out =   1, mem =  17
TIME =                 5190, data_out =   1, mem =  17
TIME =                 5210, data_out =   1, mem =  17
TIME =                 5230, data_out =   1, mem =  17
TIME =                 5250, data_out =   1, mem =  17
TIME =                 5270, data_out =   1, mem =  17
TIME =                 5290, data_out =   1, mem =  17
TIME =                 5310, data_out =   1, mem =  17
TIME =                 5330, data_out =   1, mem =  17
TIME =                 5350, data_out =   1, mem =  17
TIME =                 5370, data_out =   1, mem =  17
TIME =                 5390, data_out =   1, mem =  17
TIME =                 5410, data_out =   1, mem =  17
TIME =                 5430, data_out =   1, mem =  17
TIME =                 5450, data_out =   1, mem =  17
TIME =                 5470, data_out =   1, mem =  17
TIME =                 5490, data_out =   1, mem =  17
TIME =                 5510, data_out =   1, mem =  17
TIME =                 5530, data_out =   1, mem =  17
TIME =                 5550, data_out =   1, mem =  17
TIME =                 5570, data_out =   1, mem =  17
TIME =                 5590, data_out =   1, mem =  17
TIME =                 5610, data_out =   1, mem =  17
TIME =                 5630, data_out =   1, mem =  17
TIME =                 5650, data_out =   1, mem =  17
TIME =                 5670, data_out =   1, mem =  17
TIME =                 5690, data_out =   1, mem =  17
TIME =                 5710, data_out =   1, mem =  17
TIME =                 5730, data_out =   1, mem =  17
TIME =                 5750, data_out =   1, mem =  17
TIME =                 5770, data_out =   1, mem =  17
TIME =                 5790, data_out =   1, mem =  17
TIME =                 5810, data_out =   1, mem =  17
TIME =                 5830, data_out =   1, mem =  17
TIME =                 5850, data_out =   1, mem =  17
TIME =                 5870, data_out =   1, mem =  17
TIME =                 5890, data_out =   1, mem =  17
TIME =                 5910, data_out =   1, mem =  17
TIME =                 5930, data_out =   1, mem =  17
TIME =                 5950, data_out =   1, mem =  17
TIME =                 5970, data_out =   1, mem =  17
TIME =                 5990, data_out =   1, mem =  17
TIME =                 6010, data_out =   1, mem =  17
TIME =                 6030, data_out =   1, mem =  17
TIME =                 6050, data_out =   1, mem =  17
TIME =                 6070, data_out =   1, mem =  17
TIME =                 6090, data_out =   1, mem =  17
TIME =                 6110, data_out =   1, mem =  17
TIME =                 6130, data_out =   1, mem =  17
TIME =                 6150, data_out =   1, mem =  17
TIME =                 6170, data_out =   1, mem =  17
TIME =                 6190, data_out =   1, mem =  17
TIME =                 6210, data_out =   1, mem =  17
TIME =                 6230, data_out =   1, mem =  17
TIME =                 6250, data_out =   1, mem =  17
TIME =                 6270, data_out =   1, mem =  17
TIME =                 6290, data_out =   1, mem =  17
TIME =                 6310, data_out =   1, mem =  17
TIME =                 6330, data_out =   1, mem =  17
TIME =                 6350, data_out =   1, mem =  17
TIME =                 6370, data_out =   1, mem =  17
TIME =                 6390, data_out =   1, mem =  17
TIME =                 6410, data_out =   1, mem =  17
TIME =                 6430, data_out =   1, mem =  17
TIME =                 6450, data_out =   1, mem =  17
TIME =                 6470, data_out =   1, mem =  17
TIME =                 6490, data_out =   1, mem =  17
TIME =                 6510, data_out =   1, mem =  17
TIME =                 6530, data_out =   1, mem =  17
TIME =                 6550, data_out =   1, mem =  17
TIME =                 6570, data_out =   1, mem =  17
TIME =                 6590, data_out =   1, mem =  17
TIME =                 6610, data_out =   1, mem =  17
TIME =                 6630, data_out =   1, mem =  17
TIME =                 6650, data_out =   1, mem =  17
TIME =                 6670, data_out =   1, mem =  17
TIME =                 6690, data_out =   1, mem =  17
TIME =                 6710, data_out =   1, mem =  17
TIME =                 6730, data_out =   1, mem =  17
TIME =                 6750, data_out =   1, mem =  17
TIME =                 6770, data_out =   1, mem =  17
TIME =                 6790, data_out =   1, mem =  17
TIME =                 6810, data_out =   1, mem =  17
TIME =                 6830, data_out =   1, mem =  17
TIME =                 6850, data_out =   1, mem =  17
TIME =                 6870, data_out =   1, mem =  17
TIME =                 6890, data_out =   1, mem =  17
TIME =                 6910, data_out =   1, mem =  17
TIME =                 6930, data_out =   1, mem =  17
TIME =                 6950, data_out =   1, mem =  17
TIME =                 6970, data_out =   1, mem =  17
TIME =                 6990, data_out =   1, mem =  17
TIME =                 7010, data_out =   1, mem =  17
TIME =                 7030, data_out =   1, mem =  17
TIME =                 7050, data_out =   1, mem =  17
TIME =                 7070, data_out =   1, mem =  17
TIME =                 7090, data_out =   1, mem =  17
TIME =                 7110, data_out =   1, mem =  17
TIME =                 7130, data_out =   1, mem =  17
TIME =                 7150, data_out =   1, mem =  17
TIME =                 7170, data_out =   1, mem =  17
TIME =                 7190, data_out =   1, mem =  17
TIME =                 7210, data_out =   1, mem =  17
TIME =                 7230, data_out =   1, mem =  17
TIME =                 7250, data_out =   1, mem =  17
TIME =                 7270, data_out =   1, mem =  17
TIME =                 7290, data_out =   1, mem =  17
TIME =                 7310, data_out =   1, mem =  17
TIME =                 7330, data_out =   1, mem =  17
TIME =                 7350, data_out =   1, mem =  17
TIME =                 7370, data_out =   1, mem =  17
TIME =                 7390, data_out =   1, mem =  17
TIME =                 7410, data_out =   1, mem =  17
TIME =                 7430, data_out =   1, mem =  17
TIME =                 7450, data_out =   1, mem =  17
TIME =                 7470, data_out =   1, mem =  17
TIME =                 7490, data_out =   1, mem =  17
TIME =                 7510, data_out =   1, mem =  17
TIME =                 7530, data_out =   1, mem =  17
TIME =                 7550, data_out =   1, mem =  17
TIME =                 7570, data_out =   1, mem =  17
TIME =                 7590, data_out =   1, mem =  17
TIME =                 7610, data_out =   1, mem =  17
TIME =                 7630, data_out =   1, mem =  17
TIME =                 7650, data_out =   1, mem =  17
TIME =                 7670, data_out =   1, mem =  17
TIME =                 7690, data_out =   1, mem =  17
TIME =                 7710, data_out =   1, mem =  17
TIME =                 7730, data_out =   1, mem =  17
TIME =                 7750, data_out =   1, mem =  17
TIME =                 7770, data_out =   1, mem =  17
TIME =                 7790, data_out =   1, mem =  17
TIME =                 7810, data_out =   1, mem =  17
TIME =                 7830, data_out =   1, mem =  17
TIME =                 7850, data_out =   1, mem =  17
TIME =                 7870, data_out =   1, mem =  17
TIME =                 7890, data_out =   1, mem =  17
TIME =                 7910, data_out =   1, mem =  17
TIME =                 7930, data_out =   1, mem =  17
TIME =                 7950, data_out =   1, mem =  17
TIME =                 7970, data_out =   1, mem =  17
TIME =                 7990, data_out =   1, mem =  17
TIME =                 8010, data_out =   1, mem =  17
TIME =                 8030, data_out =   1, mem =  17
TIME =                 8050, data_out =   1, mem =  17
TIME =                 8070, data_out =   1, mem =  17
TIME =                 8090, data_out =   1, mem =  17
TIME =                 8110, data_out =   1, mem =  17
TIME =                 8130, data_out =   1, mem =  17
TIME =                 8150, data_out =   1, mem =  17
TIME =                 8170, data_out =   1, mem =  17
TIME =                 8190, data_out =   1, mem =  17
TIME =                 8210, data_out =   1, mem =  17
TIME =                 8230, data_out =   1, mem =  17
TIME =                 8250, data_out =   1, mem =  17
TIME =                 8270, data_out =   1, mem =  17
TIME =                 8290, data_out =   1, mem =  17
TIME =                 8310, data_out =   1, mem =  17
TIME =                 8330, data_out =   1, mem =  17
TIME =                 8350, data_out =   1, mem =  17
TIME =                 8370, data_out =   1, mem =  17
TIME =                 8390, data_out =   1, mem =  17
TIME =                 8410, data_out =   1, mem =  17
TIME =                 8430, data_out =   1, mem =  17
TIME =                 8450, data_out =   1, mem =  17
TIME =                 8470, data_out =   1, mem =  17
TIME =                 8490, data_out =   1, mem =  17
TIME =                 8510, data_out =   1, mem =  17
TIME =                 8530, data_out =   1, mem =  17
TIME =                 8550, data_out =   1, mem =  17
TIME =                 8570, data_out =   1, mem =  17
TIME =                 8590, data_out =   1, mem =  17
TIME =                 8610, data_out =   1, mem =  17
TIME =                 8630, data_out =   1, mem =  17
TIME =                 8650, data_out =   1, mem =  17
TIME =                 8670, data_out =   1, mem =  17
TIME =                 8690, data_out =   1, mem =  17
TIME =                 8710, data_out =   1, mem =  17
TIME =                 8730, data_out =   1, mem =  17
TIME =                 8750, data_out =   1, mem =  17
TIME =                 8770, data_out =   1, mem =  17
TIME =                 8790, data_out =   1, mem =  17
TIME =                 8810, data_out =   1, mem =  17
TIME =                 8830, data_out =   1, mem =  17
TIME =                 8850, data_out =   1, mem =  17
TIME =                 8870, data_out =   1, mem =  17
TIME =                 8890, data_out =   1, mem =  17
TIME =                 8910, data_out =   1, mem =  17
TIME =                 8930, data_out =   1, mem =  17
TIME =                 8950, data_out =   1, mem =  17
TIME =                 8970, data_out =   1, mem =  17
TIME =                 8990, data_out =   1, mem =  17
TIME =                 9010, data_out =   1, mem =  17
TIME =                 9030, data_out =   1, mem =  17
TIME =                 9050, data_out =   1, mem =  17
TIME =                 9070, data_out =   1, mem =  17
TIME =                 9090, data_out =   1, mem =  17
TIME =                 9110, data_out =   1, mem =  17
TIME =                 9130, data_out =   1, mem =  17
TIME =                 9150, data_out =   1, mem =  17
TIME =                 9170, data_out =   1, mem =  17
TIME =                 9190, data_out =   1, mem =  17
TIME =                 9210, data_out =   1, mem =  17
TIME =                 9230, data_out =   1, mem =  17
TIME =                 9250, data_out =   1, mem =  17
TIME =                 9270, data_out =   1, mem =  17
TIME =                 9290, data_out =   1, mem =  17
TIME =                 9310, data_out =   1, mem =  17
TIME =                 9330, data_out =   1, mem =  17
TIME =                 9350, data_out =   1, mem =  17
TIME =                 9370, data_out =   1, mem =  17
TIME =                 9390, data_out =   1, mem =  17
TIME =                 9410, data_out =   1, mem =  17
TIME =                 9430, data_out =   1, mem =  17
TIME =                 9450, data_out =   1, mem =  17
TIME =                 9470, data_out =   1, mem =  17
TIME =                 9490, data_out =   1, mem =  17
TIME =                 9510, data_out =   1, mem =  17
TIME =                 9530, data_out =   1, mem =  17
TIME =                 9550, data_out =   1, mem =  17
TIME =                 9570, data_out =   1, mem =  17
TIME =                 9590, data_out =   1, mem =  17
TIME =                 9610, data_out =   1, mem =  17
TIME =                 9630, data_out =   1, mem =  17
TIME =                 9650, data_out =   1, mem =  17
TIME =                 9670, data_out =   1, mem =  17
TIME =                 9690, data_out =   1, mem =  17
TIME =                 9710, data_out =   1, mem =  17
TIME =                 9730, data_out =   1, mem =  17
TIME =                 9750, data_out =   1, mem =  17
TIME =                 9770, data_out =   1, mem =  17
TIME =                 9790, data_out =   1, mem =  17
TIME =                 9810, data_out =   1, mem =  17
TIME =                 9830, data_out =   1, mem =  17
TIME =                 9850, data_out =   1, mem =  17
TIME =                 9870, data_out =   1, mem =  17
TIME =                 9890, data_out =   1, mem =  17
TIME =                 9910, data_out =   1, mem =  17
TIME =                 9930, data_out =   1, mem =  17
TIME =                 9950, data_out =   1, mem =  17
TIME =                 9970, data_out =   1, mem =  17
TIME =                 9990, data_out =   1, mem =  17
TIME =                10010, data_out =   1, mem =  17
TIME =                10030, data_out =   1, mem =  17
TIME =                10050, data_out =   1, mem =  17
TIME =                10070, data_out =   1, mem =  17
TIME =                10090, data_out =   1, mem =  17
TIME =                10110, data_out =   1, mem =  17
TIME =                10130, data_out =   1, mem =  17
TIME =                10150, data_out =   1, mem =  17
TIME =                10170, data_out =   1, mem =  17
TIME =                10190, data_out =   1, mem =  17
TIME =                10210, data_out =   1, mem =  17
TIME =                10230, data_out =   1, mem =  17
TIME =                10250, data_out =   1, mem =  17
TIME =                10270, data_out =   1, mem =  17
TIME =                10290, data_out =   1, mem =  17
TIME =                10310, data_out =   1, mem =  17
TIME =                10330, data_out =   1, mem =  17
TIME =                10350, data_out =   1, mem =  17
TIME =                10370, data_out =   1, mem =  17
TIME =                10390, data_out =   1, mem =  17
TIME =                10410, data_out =   1, mem =  17
TIME =                10430, data_out =   1, mem =  17
TIME =                10450, data_out =   1, mem =  17
TIME =                10470, data_out =   1, mem =  17
TIME =                10490, data_out =   1, mem =  17
TIME =                10510, data_out =   1, mem =  17
TIME =                10530, data_out =   1, mem =  17
TIME =                10550, data_out =   1, mem =  17
TIME =                10570, data_out =   1, mem =  17
TIME =                10590, data_out =   1, mem =  17
TIME =                10610, data_out =   1, mem =  17
TIME =                10630, data_out =   1, mem =  17
TIME =                10650, data_out =   1, mem =  17
TIME =                10670, data_out =   1, mem =  17
TIME =                10690, data_out =   1, mem =  17
TIME =                10710, data_out =   1, mem =  17
TIME =                10730, data_out =   1, mem =  17
TIME =                10750, data_out =   1, mem =  17
TIME =                10770, data_out =   1, mem =  17
TIME =                10790, data_out =   1, mem =  17
TIME =                10810, data_out =   1, mem =  17
TIME =                10830, data_out =   1, mem =  17
TIME =                10850, data_out =   1, mem =  17
TIME =                10870, data_out =   1, mem =  17
TIME =                10890, data_out =   1, mem =  17
TIME =                10910, data_out =   1, mem =  17
TIME =                10930, data_out =   1, mem =  17
TIME =                10950, data_out =   1, mem =  17
TIME =                10970, data_out =   1, mem =  17
TIME =                10990, data_out =   1, mem =  17
TIME =                11010, data_out =   1, mem =  17
TIME =                11030, data_out =   1, mem =  17
TIME =                11050, data_out =   1, mem =  17
TIME =                11070, data_out =   1, mem =  17
TIME =                11090, data_out =   1, mem =  17
TIME =                11110, data_out =   1, mem =  17
TIME =                11130, data_out =   1, mem =  17
TIME =                11150, data_out =   1, mem =  17
TIME =                11170, data_out =   1, mem =  17
TIME =                11190, data_out =   1, mem =  17
TIME =                11210, data_out =   1, mem =  17
TIME =                11230, data_out =   1, mem =  17
TIME =                11250, data_out =   1, mem =  17
TIME =                11270, data_out =   1, mem =  17
TIME =                11290, data_out =   1, mem =  17
TIME =                11310, data_out =   1, mem =  17
TIME =                11330, data_out =   1, mem =  17
TIME =                11350, data_out =   1, mem =  17
TIME =                11370, data_out =   1, mem =  17
TIME =                11390, data_out =   1, mem =  17
TIME =                11410, data_out =   1, mem =  17
TIME =                11430, data_out =   1, mem =  17
TIME =                11450, data_out =   1, mem =  17
TIME =                11470, data_out =   1, mem =  17
TIME =                11490, data_out =   1, mem =  17
TIME =                11510, data_out =   1, mem =  17
